{
 "charts": [],
 "content": "[{\"type\":\"header\",\"data\":{\"text\":\"Conjugal Dictatorship\\n\\t\\t\\t\\n\\t\\t\\n\\t\\t\\t\\n\\t\\t\\n\\t\\t\\t\\n\\t\\t\",\"level\":4,\"col\":12}},{\"type\":\"card\",\"data\":{\"card_name\":\"Subscribers\",\"col\":4}},{\"type\":\"card\",\"data\":{\"card_name\":\"Book\",\"col\":4}}]",
 "creation": "2022-02-07 16:31:34.679899",
 "docstatus": 0,
 "doctype": "Workspace",
 "hide_custom": 0,
 "icon": "",
 "idx": 0,
 "label": "Conjugal Dictatorship",
 "links": [
  {
   "hidden": 0,
   "is_query_report": 0,
   "label": "Amount Owed by JC",
   "link_count": 0,
   "link_to": "Amount Owed by JC",
   "link_type": "Report",
   "onboard": 0,
   "type": "Link"
  },
  {
   "hidden": 0,
   "is_query_report": 0,
   "label": "Book",
   "link_count": 4,
   "onboard": 0,
   "type": "Card Break"
  },
  {
   "hidden": 0,
   "is_query_report": 0,
   "label": "Book Settings",
   "link_count": 0,
   "link_to": "Book Settings",
   "link_type": "DocType",
   "onboard": 0,
   "type": "Link"
  },
  {
   "hidden": 0,
   "is_query_report": 0,
   "label": "Orders",
   "link_count": 0,
   "link_to": "Book Order",
   "link_type": "DocType",
   "onboard": 0,
   "type": "Link"
  },
  {
   "hidden": 0,
   "is_query_report": 0,
   "label": "Amount Owed by JC",
   "link_count": 0,
   "link_to": "Amount Owed by JC",
   "link_type": "Report",
   "onboard": 0,
   "type": "Link"
  },
  {
   "hidden": 0,
   "is_query_report": 0,
   "label": "Payment by JC",
   "link_count": 0,
   "link_to": "Payment by JC",
   "link_type": "DocType",
   "onboard": 0,
   "type": "Link"
  },
  {
   "hidden": 0,
   "is_query_report": 0,
   "label": "Subscribers",
   "link_count": 3,
   "onboard": 0,
   "type": "Card Break"
  },
  {
   "hidden": 0,
   "is_query_report": 0,
   "label": "Subscribers",
   "link_count": 0,
   "link_to": "Subscriber",
   "link_type": "DocType",
   "onboard": 0,
   "type": "Link"
  },
  {
   "hidden": 0,
   "is_query_report": 0,
   "label": "Barangays",
   "link_count": 0,
   "link_to": "Barangay",
   "link_type": "DocType",
   "onboard": 0,
   "type": "Link"
  },
  {
   "hidden": 0,
   "is_query_report": 0,
   "label": "Countries",
   "link_count": 0,
   "link_to": "Country",
   "link_type": "DocType",
   "onboard": 0,
   "type": "Link"
  }
 ],
 "modified": "2022-05-11 15:10:06.188831",
 "modified_by": "Administrator",
 "module": "Conjugal Dictatorship",
 "name": "Conjugal Dictatorship",
 "owner": "Administrator",
 "parent_page": "",
 "public": 1,
 "roles": [],
 "sequence_id": 8,
 "shortcuts": [],
 "title": "Conjugal Dictatorship"
}