{
 "__islocal": true,
 "__unsaved": 1,
 "creation": "2022-02-08 14:04:30.533900",
 "docstatus": 0,
 "doctype": "Web Template",
 "fields": [],
 "idx": 0,
 "modified": "2022-02-08 14:04:30.533900",
 "modified_by": "Administrator",
 "module": "Conjugal Dictatorship",
 "name": "Book Order Form",
 "owner": "Administrator",
 "standard": 1,
 "template": "",
 "type": "Section"
}