{
 "actions": [],
 "allow_rename": 1,
 "creation": "2022-03-23 09:38:02.621105",
 "doctype": "DocType",
 "editable_grid": 1,
 "engine": "InnoDB",
 "field_order": [
  "question",
  "correct_answer",
  "incorrect_answer_1",
  "incorrect_answer_2",
  "incorrect_answer_3"
 ],
 "fields": [
  {
   "fieldname": "question",
   "fieldtype": "Data",
   "in_list_view": 1,
   "label": "Question",
   "reqd": 1
  },
  {
   "fieldname": "correct_answer",
   "fieldtype": "Data",
   "in_list_view": 1,
   "label": "Correct Answer",
   "reqd": 1
  },
  {
   "fieldname": "incorrect_answer_1",
   "fieldtype": "Data",
   "in_list_view": 1,
   "label": "Incorrect Answer 1",
   "reqd": 1
  },
  {
   "fieldname": "incorrect_answer_2",
   "fieldtype": "Data",
   "label": "Incorrect Answer 2"
  },
  {
   "fieldname": "incorrect_answer_3",
   "fieldtype": "Data",
   "label": "Incorrect Answer 3"
  }
 ],
 "index_web_pages_for_search": 1,
 "istable": 1,
 "links": [],
 "modified": "2022-03-23 09:38:02.621105",
 "modified_by": "Administrator",
 "module": "Conjugal Dictatorship",
 "name": "Quiz Question",
 "owner": "Administrator",
 "permissions": [],
 "sort_field": "modified",
 "sort_order": "DESC",
 "states": []
}